<?xml version="1.0"?>
<robot xmlns:xacro="http://wiki.ros.org/xacro" name="ur_robot_gazebo">
  <!--
    This is a top-level xacro instantiating the Gazebo-specific version of the
    'ur_robot' macro (ie: 'ur_robot_gazebo') and passing it values for all its
    required arguments.

    This file should be considered the Gazebo-specific variant of the file
    with the same name in the ur_description package. It accepts the same
    arguments, but instead of configuring everything for a real robot, will
    generate a Gazebo-compatible URDF with a ros_control hardware_interface
    attached to it.

    Only use this top-level xacro if you plan on spawning the robot in Gazebo
    'by itself', without any gripper or any other geometry attached.

    If you need to attach an end-effector, camera or need to integrate the
    robot into a larger workcell and want to spawn that as a single entity in
    Gazebo, DO NOT EDIT THIS FILE.

    Instead: create a new top-level xacro, give it a proper name, include the
    required '.xacro' files, instantiate the models (ie: call the macros) and
    connect everything by adding the appropriate joints.
  -->

  <!--
    Import main macro.

    NOTE: this imports the Gazebo-wrapper main macro, NOT the regular
          xacro macro (which is hosted by ur_description).
  -->
  <xacro:include filename="$(find ur_description)/urdf/inc/ur5e_macro.xacro"/>
  <xacro:include filename="$(find par)/models/kinect-plugin/model.urdf.xacro"/>
  
  <xacro:arg name="kinematics_config" default="$(find robot)/config/kinematics.yaml"/>
  <xacro:ur5e_robot prefix="" kinematics_parameters_file="$(arg kinematics_config)"/>
    
  <link name="world"/>
  <joint name="world_joint" type="fixed">
    <parent link="world"/>
    <child link="base_link"/>
    <origin xyz="0 0 0" rpy="0 0 0"/>
  </joint>  
  
  <!-- KINECT -->
  <xacro:sensor_kinect
    prefix="/"
    name="camera"
    parent="tool0" 
    cam_px="0" 
    cam_py="0.10"
    cam_pz="0.03" 
    cam_or="0"
    cam_op="-1.57" 
    cam_oy="-1.57">
  </xacro:sensor_kinect>
  
  <gazebo>
    <plugin name="ros_control" filename="libgazebo_ros_control.so">
<!--     <robotNamespace>robot1</robotNamespace> -->
    </plugin>
  </gazebo>


</robot>
